[gd_scene load_steps=8 format=2]

[ext_resource path="res://Button/Button.png" type="Texture" id=1]
[ext_resource path="res://Button/Button.gd" type="Script" id=2]
[ext_resource path="res://Button/button-pressed.png" type="Texture" id=3]
[ext_resource path="res://sfx/button_open.mp3" type="AudioStream" id=4]
[ext_resource path="res://light.png" type="Texture" id=5]

[sub_resource type="SpriteFrames" id=3]
animations = [ {
"frames": [ ExtResource( 1 ), ExtResource( 3 ) ],
"loop": false,
"name": "Pressed",
"speed": 5.0
} ]

[sub_resource type="RectangleShape2D" id=1]
extents = Vector2( 8, 2.5 )

[node name="Button" type="Area2D"]
scale = Vector2( 2, 2 )
collision_layer = 3
collision_mask = 3
script = ExtResource( 2 )

[node name="Sprite" type="AnimatedSprite" parent="."]
position = Vector2( 0, -5.5 )
frames = SubResource( 3 )
animation = "Pressed"

[node name="CollisionShape2D" type="CollisionShape2D" parent="."]
shape = SubResource( 1 )

[node name="AudioStreamPlayer2D" type="AudioStreamPlayer2D" parent="."]
stream = ExtResource( 4 )
volume_db = -10.0

[node name="Light2D" type="Light2D" parent="."]
texture = ExtResource( 5 )
offset = Vector2( 0, -8 )
texture_scale = 0.2
color = Color( 0.386719, 0.870636, 1, 1 )
energy = 0.4

[connection signal="body_entered" from="." to="." method="_on_Button_body_entered"]
[connection signal="body_exited" from="." to="." method="_on_Button_body_exited"]
